Polymer Branching Analysis • measure.sec
…
print(g_result)
#> Branching Analysis Results
#> ================================================== 
#> 
#> MW Range: 100000 - 100000
#> g (Rg ratio): 0.627 - 0.627 (mean: 0.627)
#> 
#> Estimated branches/molecule: 2.6 - 2.6
#> 
#> # A tibble: 701 × 2
#>        mw     g
#>     <dbl> <dbl>
#>  1 100000 0.627
#>  2 100000 0.627
#>  3 100000 0.627
#>  4 100000 0.627
#>  5 100000 0.627
#>  6 100000 0.627
#>  7 100000 0.627
#>  8 100000 0.627
#>  9 100000 0.627
#> 10 100000 0.627
#> # ℹ 691 more rows
…
print(freq)
#> Branching Frequency Analysis (Zimm-Stockmayer)
#> ================================================== 
#> 
#> Architecture: random
#> N samples: 701
#> 
#> g ratio range: 0.627 - 0.627
#> Branches/molecule: 7.74 - 7.74 (mean: 7.74)
#> Branch density: 0.0774 - 0.0774 per 1000 Da
#> 
#> # A tibble: 701 × 2
#>        g branches_per_molecule
#>    <dbl>                 <dbl>
#>  1 0.627                  7.74
#>  2 0.627                  7.74
#>  3 0.627                  7.74
#>  4 0.627                  7.74
#>  5 0.627                  7.74
#>  6 0.627                  7.74
#>  7 0.627                  7.74
#>  8 0.627                  7.74
#>  9 0.627                  7.74
#> 10 0.627                  7.74
#> # ℹ 691 more rows
…
