Getting Started with measure.sec • measure.sec
…
Note: If you have a light scattering detector
(MALS), you can determine absolute molecular weights without
calibration. See vignette("triple-detection") for
details.

# Load polystyrene narrow standards
# These are well-characterized polymers used to build the calibration curve
data(sec_ps_standards, package = "measure.sec")

# View the standards - each has a known peak molecular weight (Mp)
sec_ps_standards |>
  select(standard_name, mp, log_mp, retention_time) |>
  print(n = 8)
#> # A tibble: 16 × 4
#>   standard_name      mp log_mp retention_time
#>   <chr>           <dbl>  <dbl>          <dbl>
#> 1 PS-3150000    3150000   6.50           11.2
#> 2 PS-1870000    1870000   6.27           11.6
#> 3 PS-1090000    1090000   6.04           12.1
#> 4 PS-630000      630000   5.80           12.6
#> 5 PS-430000      430000   5.63           13.2
#> 6 PS-216000      216000   5.33           13.8
#> 7 PS-120000      120000   5.08           14.3
#> 8 PS-67500        67500   4.83           15.0
#> # ℹ 8 more rows
…
