…
## Basic Workflow: RI Detector Analysis

Let’s analyze a polystyrene sample using the RI detector:

``` r
# Select a single polystyrene standard
ps_sample <- sec_triple_detect |>
  filter(sample_id == "PS-50K")

# View the data structure
ps_sample |>
  select(sample_id, polymer_type, known_mw, ri_signal)
#> # A tibble: 2,001 × 4
#>    sample_id polymer_type known_mw ri_signal
#>    <chr>     <chr>           <dbl>     <dbl>
#>  1 PS-50K    polystyrene     50000 0        
#>  2 PS-50K    polystyrene     50000 0.000279 
#>  3 PS-50K    polystyrene     50000 0        
#>  4 PS-50K    polystyrene     50000 0        
#>  5 PS-50K    polystyrene     50000 0.000842 
#>  6 PS-50K    polystyrene     50000 0.000483 
#>  7 PS-50K    polystyrene     50000 0.0000325
#>  8 PS-50K    polystyrene     50000 0        
#>  9 PS-50K    polystyrene     50000 0        
#> 10 PS-50K    polystyrene     50000 0.000828 
#> # ℹ 1,991 more rows
```
…
## Calibration Curves

For samples without absolute MW data, use calibration standards:

``` r
# Load polystyrene standards
data(sec_ps_standards, package = "measure.sec")

# View the standards
sec_ps_standards |>
  select(standard_name, mp, log_mp, retention_time) |>
  print(n = 8)
#> # A tibble: 16 × 4
#>   standard_name      mp log_mp retention_time
#>   <chr>           <dbl>  <dbl>          <dbl>
#> 1 PS-3150000    3150000   6.50           11.2
#> 2 PS-1870000    1870000   6.27           11.6
#> 3 PS-1090000    1090000   6.04           12.1
#> 4 PS-630000      630000   5.80           12.6
#> 5 PS-430000      430000   5.63           13.2
#> 6 PS-216000      216000   5.33           13.8
#> 7 PS-120000      120000   5.08           14.3
#> 8 PS-67500        67500   4.83           15.0
#> # ℹ 8 more rows
…
