Size Exclusion Chromatography Analysis with measure.sec • measure.sec
…
Calibration Standards

The package includes comprehensive polystyrene and PMMA calibration
standards:

# Load polystyrene calibration standards
data(sec_ps_standards, package = "measure.sec")

# View the standards (16 standards from 162 Da to 3.15 MDa)
sec_ps_standards |>
  select(standard_name, mp, log_mp, retention_time, dispersity) |>
  print(n = 8)
#> # A tibble: 16 × 5
#>   standard_name      mp log_mp retention_time dispersity
#>   <chr>           <dbl>  <dbl>          <dbl>      <dbl>
#> 1 PS-3150000    3150000   6.50           11.2       1.04
#> 2 PS-1870000    1870000   6.27           11.6       1.04
#> 3 PS-1090000    1090000   6.04           12.1       1.03
#> 4 PS-630000      630000   5.80           12.6       1.04
#> 5 PS-430000      430000   5.63           13.2       1.04
#> 6 PS-216000      216000   5.33           13.8       1.03
#> 7 PS-120000      120000   5.08           14.3       1.03
#> 8 PS-67500        67500   4.83           15.0       1.03
#> # ℹ 8 more rows
…
